#SOURCE 	ENERGY	[UNITS]	OPTICS	EA_FOC	EA_STR	EA_TOT	[UNITS]	HEW_X	[UNITS]	HEW_Y	[UNITS]
#----------------------------------------------------------------------------------------------------------------------------------------------
pointSource	1000	[eV]	Athena3_1_con_con.spo	1.845	0.0	1.845	[m^2]	0.124	[arcsec]	0.124	[arcsec]
pointSource	6000	[eV]	Athena3_1_con_con.spo	0.287	0.0	0.287	[m^2]	0.144	[arcsec]	0.124	[arcsec]
